"Resource/UI/Scoreboard.res"
{
	"scores"
	{
		"ControlName"	"CTFClientScoreBoardDialog"
		"fieldName"		"scoreinfo"
		"xpos"			"c-300"
		"ypos"			"0"
		"zpos"			"10000"
		"wide"			"600"
		"tall"			"480"
		"autoResize"	"0"
		"pinCorner"		"0"
		"visible"		"1"
		"enabled"		"1"
		"tabPosition"		"0"
		"spacer"			"5"
		"medal_width"		"30"
		"avatar_width"		"57"
		"name_width"		"100"
		"nemesis_width"		"15"
		"class_width"		"18"
		"score_width"		"25"
		"ping_width"		"21"
		"killstreak_width"	"20"
		"killstreak_image_width" "15"
	}
	
	"Borders"
	{
		"ControlName"		"EditablePanel"
		"fieldName"			"Borders"
		"xpos"				"0"
		"ypos"				"43"
		"zpos"				"19"
		"wide"				"600"
		"tall"				"20"
		"paintborder"		"1"
		"border"			"G_TargetBorder"
		"visible"			"1"
		"enabled"			"1"
		
		if_mvm
		{
			"ypos"		"83"
		}
	}
	
	"Gradient"
	{
		"ControlName"		"CTFImagePanel"
		"fieldName"			"Gradient"
		"xpos"				"0"
		"ypos"				"43"
		"zpos"				"5"
		"wide"				"600"
		"tall"				"20"
		"visible"			"1"
		"enabled"			"1"
		"image"				"replay/thumbnails/gradient"
		"scaleImage"		"1"
		
		if_mvm
		{
			"ypos"		"83"
		}
	}
		
	"BlueScoreBG"
	{
		"ControlName"	"CTFImagePanel"
		"fieldName"		"BlueScoreBG"
		"xpos"			"0"
		"ypos"			"43"
		"wide"			"300"
		"tall"			"20"
		"autoResize"	"0"
		"pinCorner"		"0"
		"visible"		"0"
		"enabled"		"0"
		"image"					"../hud/color_panel_blu"
		"scaleImage"			"1"
		"paintborder"			"1"
		"border"				"G_TargetBorder"
		"src_corner_height"		"23"
		"src_corner_width"		"23"
		"draw_corner_width"		"0"
		"draw_corner_height" 	"0"	
	}
	
	"G_BlueScoreBG"
	{
		"ControlName"	"EditablePanel"
		"fieldName"		"G_BlueScoreBG"
		"xpos"			"0"
		"ypos"			"43"
		"wide"			"290"
		"tall"			"20"
		"zpos"			"2"
		"autoResize"	"0"
		"pinCorner"		"0"
		"visible"		"1"
		"enabled"		"1"
		"paintbackground"	"1"
		"bgcolor_override"	"G_TeamBlue"
		
		if_mvm
		{
			"xpos"		"510"
			"ypos"		"83"
			"wide"		"90"
		}
	}
	
	"BlueTeamImage"
	{
		"ControlName"	"ImagePanel"
		"fieldName"		"BlueTeamImage"
		"xpos"			"0"
		"ypos"			"0"
		"zpos"			"0"
		"wide"			"0"
		"tall"			"0"
		"visible"		"0"
		"enabled"		"0"
		"image"			"../hud/team_blue"
		"scaleImage"		"1"
	}
	
	"BlueLeaderAvatar"
	{
		"ControlName"	"CAvatarImagePanel"
		"fieldName"		"BlueLeaderAvatar"
		"xpos"			"0"
		"ypos"			"17"
		"zpos"			"25"
		"wide"			"24"
		"tall"			"24"
		"visible"		"0"
		"enabled"		"1"
		"image"			""
		"scaleImage"	"1"	
		"color_outline"	"0 0 0 255"
	}
	
	"BlueLeaderAvatarBG"
	{
		"ControlName"	"EditablePanel"
		"fieldName"		"BlueLeaderAvatarBG"
		"xpos"			"0"
		"ypos"			"0"
		"zpos"			"0"
		"wide"			"0"
		"tall"			"0"
		"visible"		"0"
		"enabled"		"0"
		"Alpha"			"0"
		"PaintBackgroundType"	"2"
		"bgcolor_override"	"117 107 94 255"
	}
	
	"RedScoreBG"
	{
		"ControlName"	"CTFImagePanel"
		"fieldName"		"RedScoreBG"
		"xpos"			"300"
		"ypos"			"43"
		"wide"			"300"
		"tall"			"20"
		"autoResize"	"0"
		"pinCorner"		"0"
		"visible"		"0"
		"enabled"		"0"
		"image"					"../hud/color_panel_red"
		"scaleImage"			"1"
		"paintborder"			"1"
		"border"				"G_TargetBorder"
		"src_corner_height"		"23"
		"src_corner_width"		"23"
		"draw_corner_width"		"0"
		"draw_corner_height" 	"0"	
	}
	
	"G_RedScoreBG"
	{
		"ControlName"	"EditablePanel"
		"fieldName"		"G_RedScoreBG"
		"xpos"			"0"
		"ypos"			"43"
		"wide"			"600"
		"tall"			"20"
		"zpos"			"1"
		"autoResize"	"0"
		"pinCorner"		"0"
		"visible"		"1"
		"enabled"		"1"
		"paintbackground"	"1"
		"bgcolor_override"	"G_TeamRed"
		
		if_mvm
		{
			"ypos"		"83"
		}
		
	}
	
	"RedTeamImage"
	{
		"ControlName"	"ImagePanel"
		"fieldName"		"RedTeamImage"
		"fieldName"		"BlueTeamImage"
		"xpos"			"0"
		"ypos"			"0"
		"zpos"			"0"
		"wide"			"0"
		"tall"			"0"
		"visible"		"0"
		"enabled"		"0"
		"image"			"../hud/team_red"
		"scaleImage"		"1"
	}
	
	"RedLeaderAvatar"
	{
		"ControlName"	"CAvatarImagePanel"
		"fieldName"		"RedLeaderAvatar"
		"xpos"			"576"
		"ypos"			"17"
		"zpos"			"25"
		"wide"			"24"
		"tall"			"24"
		"visible"		"0"
		"enabled"		"1"
		"image"			""
		"scaleImage"	"1"	
		"color_outline"	"0 0 0 255"
	}
	
	"RedLeaderAvatarBG"
	{
		"ControlName"	"EditablePanel"
		"fieldName"		"RedLeaderAvatarBG"
		"xpos"			"0"
		"ypos"			"0"
		"zpos"			"0"
		"wide"			"0"
		"tall"			"0"
		"visible"		"0"
		"PaintBackgroundType"	"2"
		"bgcolor_override"	"117 107 94 255"
	}
	
	"G_Slash"
	{
		"ControlName"	"CExLabel"
		"fieldName"		"G_Slash"
		"font"			"G_Slash"
		"labelText"		"/"
		"textAlignment"	"west"
		"xpos"			"290" [$WINDOWS]
		"xpos"			"289" [!$WINDOWS]
		"ypos"			"43"
		"wide"			"20"
		"tall"			"20" [$WINDOWS]
		"tall"			"21" [!$WINDOWS]
		"zpos"			"3"
		"autoResize"	"0"
		"pinCorner"		"0"
		"visible"		"1"
		"enabled"		"1"
		"fgcolor"		"G_TeamBlue"
		
		if_mvm
		{
			"xpos"		"510" [$WINDOWS]
			"xpos"		"509" [!$WINDOWS]
			"ypos"		"83"
			"fgcolor"	"G_TeamRed"
		}
	}
	
	"PlayersBg"
	{
		"ControlName"	"EditablePanel"
		"fieldName"		"PlayersBg"
		"xpos"			"0"
		"ypos"			"64"
		"zpos"			"0"
		"wide"			"600"
		"tall"			"374"
		"autoResize"	"0"
		"pinCorner"		"0"
		"visible"		"1"
		"enabled"		"1"
		"paintbackground"		"1"
		"bgcolor_override"		"G_PanelBg"
		"paintborder"			"1"
		"border"				"G_TargetBorder"
		
		if_mvm
		{
			"ypos"			"104"
			"tall"			"341"
		}
	}
	

	"MainBG"
	{
		"ControlName"	"CTFImagePanel"
		"fieldName"		"MainBG"
		"xpos"			"0"
		"ypos"			"0"
		"zpos"			"-1"
		"wide"			"600"
		"tall"			"480"
		"autoResize"	"0"
		"pinCorner"		"0"
		"visible"		"0"
		"enabled"		"0"
		"image"			"../hud/tournament_panel_red"
		"scaleImage"	"1"
	}		
	
	"BlueTeamLabel"
	{
		"ControlName"	"CExLabel"
		"fieldName"		"BlueTeamLabel"
		"font"			"G_FontMedium"
		"textinsetx"	"5"
		"labelText"		"%blueteamname%"
		"textAlignment"	"west"
		"xpos"			"10"
		"ypos"			"43"
		"zpos"			"4"
		"wide"			"140"
		"tall"			"20"
		"autoResize"	"0"
		"pinCorner"		"0"
		"visible"		"1"
		"enabled"		"1"
		"fgcolor_override"	"G_White"
		
		if_mvm
		{
			"visible"			"0"
			"fgcolor_override"	"0 0 0 0"
		}
	}							
	"BlueTeamScore"
	{
		"ControlName"		"CExLabel"
		"fieldName"			"BlueTeamScore"
		"font"				"G_FontBig"
		"labelText"			"%blueteamscore%"
		"textAlignment"		"east"
		"xpos"				"190"
		"ypos"				"43"
		"zpos"				"4"
		"wide"				"100"
		"tall"				"20"
		"autoResize"		"0"
		"pinCorner"			"0"
		"visible"			"1"
		"enabled"			"1"
		"fgcolor_override"	"G_White"
		"textinsetx"		"5"
		
		if_mvm
		{
			"visible"		"0"
		}
	}
	"BlueTeamScoreDropshadow"
	{
		"ControlName"		"CExLabel"
		"fieldName"			"BlueTeamScoreDropshadow"
		"font"				"G_FontHuge"
		"fgcolor"			"G_Shadow"
		"labelText"			"%blueteamscore%"
		"textAlignment"		"east"
		"xpos"				"192"
		"ypos"				"2" 
		"zpos"				"4"
		"wide"				"100"
		"tall"				"42"
		"autoResize"		"0"
		"pinCorner"			"0"
		"visible"			"0"
		"enabled"			"0"
		"textinsetx"		"5"
	}							
	"BlueTeamPlayerCount"
	{
		"ControlName"		"CExLabel"
		"fieldName"			"BlueTeamPlayerCount"
		"font"				"G_FontMedium_2"
		"labelText"			"%blueteamplayercount%"
		"textAlignment"		"west"
		"xpos"				"150"
		"ypos"				"43"
		"zpos"				"4"
		"wide"				"100"
		"tall"				"20"
		"autoResize"		"0"
		"pinCorner"			"0"
		"visible"			"1"
		"enabled"			"1"
		"fgcolor_override"	"G_White"
		
		if_mvm
		{
			"visible"		"0"
		}
	}							
	"RedTeamLabel"
	{
		"ControlName"	"CExLabel"
		"fieldName"		"RedTeamLabel"
		"font"			"G_FontMedium"
		"textinsetx"	"5"
		"labelText"		"%redteamname%"
		"textAlignment"	"east"
		"xpos"			"450"
		"ypos"			"43"
		"zpos"			"4"
		"wide"			"140"
		"tall"			"20"
		"autoResize"	"0"
		"pinCorner"		"0"
		"visible"		"1"
		"enabled"		"1"
		"fgcolor_override"	"G_White"
		
		if_mvm
		{
			"visible"			"0"
			"fgcolor_override"	"0 0 0 0"
		}
	}							
	"RedTeamScore"
	{
		"ControlName"	"CExLabel"
		"fieldName"		"RedTeamScore"
		"font"			"G_FontBig"
		"textinsetx"	"5"
		"labelText"		"%redteamscore%"
		"textAlignment"	"west"
		"xpos"			"310"
		"ypos"			"43"
		"zpos"			"4"
		"wide"			"100"
		"tall"			"20"
		"autoResize"	"0"
		"pinCorner"		"0"
		"visible"		"1"
		"enabled"		"1"
		"fgcolor_override"	"G_White"
		
		if_mvm
		{
			"visible"		"0"
		}
	}
	"RedTeamScoreDropshadow"
	{
		"ControlName"	"CExLabel"
		"fieldName"		"RedTeamScoreDropshadow"
		"font"			"G_FontHuge"
		"textinsetx"	"5"
		"fgcolor"		"G_Shadow"
		"labelText"		"%redteamscore%"
		"textAlignment"	"west"
		"xpos"			"312"
		"ypos"			"2"
		"zpos"			"4"
		"wide"			"100"
		"tall"			"44"
		"autoResize"	"0"
		"pinCorner"		"0"
		"visible"		"0"
		"enabled"		"0"
	}
	
	"RedTeamPlayerCount"
	{
		"ControlName"	"CExLabel"
		"fieldName"		"RedTeamPlayerCount"
		"font"			"G_FontMedium_2"
		"labelText"		"%redteamplayercount%"
		"textAlignment"	"east"
		"xpos"			"350"
		"ypos"			"43"
		"zpos"			"4"
		"wide"			"100"
		"tall"			"20"
		"autoResize"	"0"
		"pinCorner"		"0"
		"visible"		"1"
		"enabled"		"1"
		"fgcolor_override"	"G_White"
		
		if_mvm
		{
			"visible"		"0"
		}
	}							
	"ServerLabel"
	{
		"ControlName"	"CExLabel"
		"fieldName"		"ServerLabel"
		"font"			"ScoreboardVerySmall"
		"labelText"		"%server%"
		"textAlignment"	"east"
		"xpos"			"296"
		"ypos"			"425"
		"zpos"			"22"
		"wide"			"300"
		"tall"			"12"
		"autoResize"	"0"
		"pinCorner"		"0"
		"visible"		"1"
		"enabled"		"1"
		"fgcolor"		"G_WhiteShadowCharge"

		if_mvm
		{
			"ypos"			"r48"
		}
	}
	"ServerTimeLeftValue"
	{
		"ControlName"	"CExLabel"
		"fieldName"		"ServerTimeLeft"
		"font"			"ScoreboardVerySmall"
		"labelText"		"%servertime%"
		"textAlignment"	"east"
		"xpos"			"366"
		"ypos"			"374"
		"zpos"			"22"
		"wide"			"230"
		"tall"			"12"
		"autoResize"	"0"
		"pinCorner"		"0"
		"visible"		"1"
		"enabled"		"1"
		"fgcolor"		"G_WhiteShadowCharge"
		
		if_mvm
		{
			"ypos"			"381"
		}
	}	
	
	"BluePlayerList"
	{
		"ControlName"	"SectionedListPanel"
		"fieldName"		"BluePlayerList"
		"xpos"			"5"
		"ypos"			"65"
		"zpos"			"20"
		"wide"			"290"
		"tall"			"300"
		"pinCorner"		"0"
		"visible"		"1"
		"enabled"		"1"
		"tabPosition"	"0"
		"autoresize"	"3"
		"linespacing"	"17"
		"linegap"		"1"
		
		if_mvm
		{
			"visible"		"0"
		}
	}
	"RedPlayerList"
	{
		"ControlName"	"SectionedListPanel"
		"fieldName"		"RedPlayerList"
		"xpos"			"305"
		"ypos"			"65"
		"zpos"			"20"
		"wide"			"290"
		"tall"			"300"
		"pinCorner"		"0"
		"visible"		"0"
		"enabled"		"0"
		"tabPosition"	"0"
		"autoresize"	"3"
		"linespacing"	"17"
		"linegap"		"1"
		
 		if_mvm
 		{
 			"visible"		"0"
 		}
	}
	
	"VerticalLine"
	{
		"ControlName"	"ImagePanel"
		"fieldName"		"VerticalLine"
		"xpos"			"299"
		"ypos"			"70"
		"zpos"			"2"
		"wide"			"2"
		"tall"			"292"
		"autoResize"	"0"
		"pinCorner"		"0"
		"visible"		"0"
		"enabled"		"1"
		"tabPosition"	"0"	
		"fillcolor"		"0 0 0 153"
		"PaintBackgroundType"	"0"
	}
	
	"Spectators"
	{
		"ControlName"	"CExLabel"
		"fieldName"		"Spectators"
		"font"			"ScoreboardVerySmall"
		"labelText"		"%spectators%"
		"textAlignment"	"west"
		"xpos"			"70"
		"ypos"			"374"
		"zpos"			"21"
		"wide"			"395"
		"tall"			"12"
		"autoResize"	"0"
		"pinCorner"		"0"
		"visible"		"1"
		"enabled"		"1"
		"fgcolor"		"G_WhiteShadowCharge"
		
		if_mvm
		{
			"ypos"			"381"
		}
	}
	
	"SpectatorsInQueue"
	{
		"ControlName"	"CExLabel"
		"fieldName"		"SpectatorsInQueue"
		"font"			"ScoreboardVerySmall"
		"labelText"		"%waitingtoplay%"
		"textAlignment"	"west"
		"xpos"			"70"
		"ypos"			"425"
		"zpos"			"4"
		"wide"			"424"
		"tall"			"12"
		"autoResize"	"0"
		"pinCorner"		"0"
		"visible"		"1"
		"enabled"		"1"
		"fgcolor"		"G_WhiteShadowCharge"
		
		if_mvm
		{
			"visible"		"0"
		}
	}							
	
	"TeamStripe"
	{
		"ControlName"	"CTFImagePanel"
		"fieldName"		"TeamStripe"
		"xpos"			"0"
		"ypos"			"386"
		"zpos"			"18"	
		"wide"			"600"
		"tall"			"40"
		"autoResize"	"0"
		"pinCorner"		"0"
		"visible"		"1"
		"enabled"		"1"
		"image"					"../hud/color_panel_brown"
		"scaleImage"			"1"
		"teambg_1"				"../hud/color_panel_brown"
		"teambg_2"				"../hud/color_panel_red"
		"teambg_3"				"../hud/color_panel_blu"
		"paintborder"			"1"
		"border"				"G_ScoreboardStripe"
		"src_corner_height"		"23"
		"src_corner_width"		"23"
		"draw_corner_width"		"0"
		"draw_corner_height" 	"0"	
		
		if_mvm
		{
			"ypos"			"393"
			"visible"		"1"
		}
	}
	
	"ClassImage"
	{
		"ControlName"	"ImagePanel"
		"fieldName"		"ClassImage"
		"xpos"			"2"
		"ypos"			"371"
		"zpos"			"19"
		"wide"			"66"
		"tall"			"66"
		"visible"		"1"
		"enabled"		"1"
		"image"			"../hud/class_scoutred"
		"scaleImage"	"1"	
		
		if_mvm
		{
			"ypos"			"378"
			"visible"		"1"
		}
	}
	
	"classmodelpanel"
	{
		"ControlName"	"CTFPlayerModelPanel"
		"fieldName"		"classmodelpanel"
		"xpos"			"0"
		"ypos"			"257"
		"zpos"			"19"
		"wide"			"90"
		"tall"			"180"
		"autoResize"	"0"
		"pinCorner"		"0"
		"visible"		"0"
		"enabled"		"1"
		"render_texture"	"0"
		"fov"				"12"
		"allow_rot"			"1"
		"disable_speak_event"	"1"

		if_mvm
		{
			"visible"		"0"
			"ypos"			"264"
		}
				
		"model"
		{
			"force_pos"	"1"

			"angles_x" "0"
			"angles_y" "172"
			"angles_z" "0"
			"origin_x" "200"
			"origin_y" "0"
			"origin_z" "-60"
			"frame_origin_x"	"0"
			"frame_origin_y"	"0"
			"frame_origin_z"	"0"
			"spotlight" "1"
		
			"modelname"		""
			
		}

		"customclassdata"
		{
			"undefined"
			{
			}
			"Scout"
			{
				"fov"			"22"
				"angles_x"		"-17"
				"angles_y"		"220"
				"angles_z"		"-2"
				"origin_x"		"115"
				"origin_y"		"-2"
				"origin_z"		"-85"
			}
			"Sniper"
			{
				"fov"			"21"
				"angles_x"		"-15"
				"angles_y"		"172"
				"angles_z"		"0"
				"origin_x"		"130"
				"origin_y"		"0"
				"origin_z"		"-97"
			}
			"Soldier"
			{
				"fov"			"25"
				"angles_x"		"-10"
				"angles_y"		"160"
				"angles_z"		"5"
				"origin_x"		"135"
				"origin_y"		"-8"
				"origin_z"		"-90"
			}
			"Demoman"
			{
				"fov"			"21"
				"angles_x"		"-16"
				"angles_y"		"200"
				"angles_z"		"0"
				"origin_x"		"138"
				"origin_y"		"-4"
				"origin_z"		"-90"
			}
			"Medic"
			{
				"fov"			"20"
				"angles_x"		"-5"
				"angles_y"		"210"
				"angles_z"		"0"
				"origin_x"		"150"
				"origin_y"		"-5"
				"origin_z"		"-96"
			}
			"Heavy"
			{
				"fov"			"20"
				"angles_x"		"-5"
				"angles_y"		"200"
				"angles_z"		"0"
				"origin_x"		"175"
				"origin_y"		"0"
				"origin_z"		"-98"
			}
			"Pyro"
			{
				"fov"			"20"
				"angles_x"		"-5"
				"angles_y"		"172"
				"angles_z"		"0"
				"origin_x"		"175"
				"origin_y"		"-5"
				"origin_z"		"-90"
			}
			"Spy"
			{
				"fov"			"20"
				"angles_x"		"-5"
				"angles_y"		"160"
				"angles_z"		"0"
				"origin_x"		"160"
				"origin_y"		"0"
				"origin_z"		"-95"
			}
			"Engineer"
			{
				"fov"			"20"
				"angles_x"		"-10"
				"angles_y"		"200"
				"angles_z"		"0"
				"origin_x"		"150"
				"origin_y"		"-2"
				"origin_z"		"-85"
			}
		}
	}
	
	"PlayerNameLabel"
	{
		"ControlName"	"CExLabel"
		"fieldName"		"PlayerNameLabel"
		"font"			"G_FontMedium"
		"textinsetx"	"5"
		"labelText"		"%playername%"
		"textAlignment"	"west"
		"xpos"			"115"
		"ypos"			"377"
		"zpos"			"3"
		"wide"			"325"
		"tall"			"20"
		"autoResize"	"0"
		"pinCorner"		"0"
		"visible"		"0"
		"enabled"		"0"
	}	
	
	"MapName"
	{
		"ControlName"	"CExLabel"
		"fieldName"		"mapname"
		"font"			"G_FontMedium_2"
		"labelText"		"%mapname%"
		"textAlignment"	"center"
		"xpos"			"513"
		"ypos"			"386"
		"zpos"			"30"
		"wide"			"87"
		"tall"			"40"
		"autoResize"	"0"
		"pinCorner"		"0"
		"visible"		"1"
		"enabled"		"1"
		"fgcolor"		"G_White"
		"centerwrap"	"1"
		
		"if_mvm"
		{
			"ypos"			"393"
		}
	}	
	
	"HorizontalLine"
	{
		"ControlName"	"ImagePanel"
		"fieldName"		"HorizontalLine"
		"xpos"			"115"
		"ypos"			"397"
		"zpos"			"3"
		"wide"			"465"
		"tall"			"1"
		"autoResize"	"0"
		"pinCorner"		"0"
		"visible"		"0"
		"enabled"		"0"
		"tabPosition"	"0"	
		"fillcolor"		"127 127 127 153"
		"PaintBackgroundType"	"0"
	}
	
	"PlayerScoreLabel"
	{
		"ControlName"	"CExLabel"
		"fieldName"		"PlayerScoreLabel"
		"font"			"G_FontSmall_2"
		"labelText"		"%playerscore%"
		"textAlignment"	"east"
		"xpos"			"455"
		"ypos"			"373"
		"zpos"			"3"
		"wide"			"140"
		"tall"			"20"
		"autoResize"	"0"
		"pinCorner"		"0"
		"visible"		"0"
		"enabled"		"0"
	}

	"LocalPlayerDuelStatsPanel"
	{
		"ControlName"	"EditablePanel"
		"fieldName"		"LocalPlayerDuelStatsPanel"
		"xpos"			"1"
		"ypos"			"382"
		"zpos"			"50"		
		"wide"			"598"
		"tall"			"50"
		"autoResize"	"0"
		"pinCorner"		"0"
		"visible"		"1"
		"enabled"		"1"
		
		if_mvm
		{
			"visible"		"0"
		}

		"DuelingLabel"
		{
			"ControlName"	"CExLabel"
			"fieldName"		"DuelingLabel"
			"font"			"G_FontTiny_2"
			"labelText"		"#TF_ScoreBoard_Dueling"
			"textAlignment"	"center"
			"xpos"			"250"
			"ypos"			"2"
			"zpos"			"3"
			"wide"			"100"
			"tall"			"20"
			"autoResize"	"0"
			"pinCorner"		"0"
			"visible"		"1"
			"enabled"		"1"
			"fgcolor"		"G_White"
		}

		"DuelingIcon"
		{
			"ControlName"	"ImagePanel"
			"fieldName"		"DuelingIcon"
			"xpos"			"284"
			"ypos"			"12"
			"zpos"			"2"
			"wide"			"32"
			"tall"			"32"
			"visible"		"1"
			"enabled"		"1"
			"image"			"../backpack/player/items/crafting/icon_dueling"
			"scaleImage"	"1"
		}

		"LocalPlayerData"
		{
			"ControlName"		"EditablePanel"
			"fieldName"		"LocalPlayerData"
			"xpos"			"75"
			"ypos"			"0"
			"wide"			"200"
			"tall"			"53"
			"autoResize"	"0"
			"pinCorner"		"0"
			"visible"		"1"
			"enabled"		"1"
			"paintbackground"	"0"
			"bgcolor_override"	"0 255 0 200"
	
			"AvatarBGPanel"
			{
				"ControlName"	"EditablePanel"
				"fieldName"		"AvatarBGPanel"
				"xpos"			"157"
				"ypos"			"7"
				"zpos"			"-1"
				"wide"			"34"
				"tall"			"34"
				"visible"		"1"
				"PaintBackgroundType"	"2"
				"bgcolor_override"	"117 107 94 255"
			}
			"AvatarImage"
			{
				"ControlName"	"CAvatarImagePanel"
				"fieldName"		"AvatarImage"
				"xpos"			"159"
				"ypos"			"9"
				"zpos"			"0"
				"wide"			"30"
				"tall"			"30"
				"visible"		"1"
				"enabled"		"1"
				"image"			""
				"scaleImage"	"1"	
				"color_outline"	"52 48 45 255"
			}
			"AvatarTextLabel"
			{	
				"ControlName"	"CExLabel"
				"fieldName"		"AvatarTextLabel"
				"fgcolor"		"TanLight"
				"xpos"			"50"
				"ypos"			"7"
				"zpos"			"2"
				"wide"			"100"
				"tall"			"18"
				"autoResize"	"0"
				"pinCorner"		"0"
				"visible"		"1"
				"enabled"		"1"
				"wrap"			"0"
				"labelText"		"%playername%"
				"textAlignment"	"east"
				"font"			"G_FontSmall"
				"textinsetx"	"5"
			}
			"Score"
			{
				"ControlName"	"CExLabel"
				"fieldName"		"Score"
				"labelText"		"%score%"
				"textAlignment"	"east"
				"xpos"			"50"
				"ypos"			"23"
				"zpos"			"3"
				"wide"			"100"
				"tall"			"20"
				"autoResize"	"0"
				"pinCorner"		"0"
				"visible"		"1"
				"enabled"		"1"
				"font"			"G_FontSmall"
				"fgcolor"	"G_White"
				"textinsetx"	"5"
			}
		}

		"OpponentData"
		{
			"ControlName"		"EditablePanel"
			"fieldName"		"OpponentData"
			"xpos"			"325"
			"ypos"			"0"
			"wide"			"200"
			"tall"			"53"
			"autoResize"	"0"
			"pinCorner"		"0"
			"visible"		"1"
			"enabled"		"1"
	
			"AvatarBGPanel"
			{
				"ControlName"	"EditablePanel"
				"fieldName"		"AvatarBGPanel"
				"xpos"			"7"
				"ypos"			"7"
				"zpos"			"-1"
				"wide"			"34"
				"tall"			"34"
				"visible"		"1"
				"PaintBackgroundType"	"2"
				"bgcolor_override"	"117 107 94 255"
			}
			"AvatarImage"
			{
				"ControlName"	"CAvatarImagePanel"
				"fieldName"		"AvatarImage"
				"xpos"			"9"
				"ypos"			"9"
				"zpos"			"0"
				"wide"			"30"
				"tall"			"30"
				"visible"		"1"
				"enabled"		"1"
				"image"			""
				"scaleImage"	"1"	
				"color_outline"	"52 48 45 255"
			}
			"AvatarTextLabel"
			{	
				"ControlName"	"CExLabel"
				"fieldName"		"AvatarTextLabel"
				"fgcolor"		"TanLight"
				"xpos"			"50"
				"ypos"			"7"
				"zpos"			"2"
				"wide"			"100"
				"tall"			"18"
				"autoResize"	"0"
				"pinCorner"		"0"
				"visible"		"1"
				"enabled"		"1"
				"wrap"			"0"
				"labelText"		"%playername%"
				"textAlignment"	"west"
				"font"			"G_FontSmall"
				"textinsetx"	"5"
			}
			"Score"
			{
				"ControlName"	"CExLabel"
				"fieldName"		"Score"
				"labelText"		"%score%"
				"textAlignment"	"west"
				"xpos"			"50"
				"ypos"			"23"
				"zpos"			"3"
				"wide"			"200"
				"tall"			"20"
				"autoResize"	"0"
				"pinCorner"		"0"
				"visible"		"1"
				"enabled"		"1"
				"font"			"G_FontSmall"
				"fgcolor"	"G_White"
				"textinsetx"	"5"
			}
		}
	}

	"LocalPlayerStatsPanel"
	{
		"ControlName"	"EditablePanel"
		"fieldName"		"LocalPlayerStatsPanel"
		"xpos"			"0"
		"ypos"			"369"
		"zpos"			"21"
		"wide"			"600"
		"tall"			"448"
		"autoResize"	"0"
		"pinCorner"		"0"
		"visible"		"1"
		"enabled"		"1"
		"font"			"G_FontSmall"
		
		if_mvm
		{
			"ypos"			"376"
			"visible"		"1"
		}
			
		"KillsLabel"
		{
			"ControlName"		"CExLabel"
			"fieldName"		"KillsLabel"
			"textinsetx"	"5"
			"font"			"G_FontSmall_2"
			"labelText_override"		"Kills"
			"textAlignment"		"east"
			"xpos"			"0"
			"ypos"			"25"
			"zpos"			"3"
			"wide"			"95"
			"tall"			"20"
			"autoResize"	"0"
			"pinCorner"		"0"
			"visible"		"0"
			"enabled"		"0"
		}	

		"DeathsLabel"
		{
			"ControlName"		"CExLabel"
			"fieldName"		"DeathsLabel"
			"font"			"ScoreboardVerySmall"
			"labelText"		"#TF_ScoreBoard_DeathsLabel"
			"textAlignment"		"east"
			"xpos"			"80"
			"ypos"			"10"
			"zpos"			"3"
			"wide"			"95"
			"tall"			"20"
			"autoResize"	"0"
			"pinCorner"		"0"
			"visible"		"0"
			"enabled"		"0"
		}						
		"AssistsLabel"
		{
			"ControlName"		"CExLabel"
			"fieldName"		"AssistsLabel"
			"font"			"ScoreboardVerySmall"
			"labelText"		"#TF_ScoreBoard_AssistsLabel"
			"textAlignment"	"east"
			"xpos"			"219"
			"ypos"			"17"
			"zpos"			"3"
			"wide"			"50"
			"tall"			"20"
			"autoResize"	"0"
			"pinCorner"		"0"
			"visible"		"1"
			"enabled"		"1"
			
			
		}
		
		"DestructionLabel"
		{
			"ControlName"	"CExLabel"
			"fieldName"		"DestructionLabel"
			"font"			"ScoreboardVerySmall"
			"labelText"		"#TF_ScoreBoard_DestructionLabel"
			"textAlignment"	"east"
			"xpos"			"219"
			"ypos"			"27"
			"zpos"			"3"
			"wide"			"50"
			"tall"			"20"
			"autoResize"	"0"
			"pinCorner"		"0"
			"visible"		"1"
			"enabled"		"1"
			
			
		}	
		
		"CapturesLabel"
		{
			"ControlName"		"CExLabel"
			"fieldName"		"CapturesLabel"
			"font"			"ScoreboardVerySmall"
			"labelText"		"#TF_ScoreBoard_CapturesLabel"
			"textAlignment"		"east"
			"xpos"			"219"
			"ypos"			"37"
			"zpos"			"3"
			"wide"			"50"
			"tall"			"20"
			"autoResize"	"0"
			"pinCorner"		"0"
			"visible"		"1"
			"enabled"		"1"
			
			
		}		
		"Kills"
		{
			"ControlName"	"CExLabel"
			"fieldName"		"Kills"
			"textinsetx"	"2"
			"font"			"G_FontMedium"
			"labelText"		"%kills%"
			"textAlignment"	"east"
			"xpos"			"48"
			"ypos"			"17"
			"zpos"			"3"
			"wide"			"60"
			"tall"			"40"
			"autoResize"	"0"
			"pinCorner"		"0"
			"visible"		"1"
			"enabled"		"1"
			"fgcolor"		"G_White"
		}	
		"Colon"
		{
			"ControlName"	"CExLabel"
			"fieldName"		"Colon"
			"font"			"G_FontMedium"
			"labelText"		":"
			"textAlignment"	"center"
			"xpos"			"106"
			"ypos"			"17"
			"zpos"			"3"
			"wide"			"15"
			"tall"			"40"
			"autoResize"	"0"
			"pinCorner"		"0"
			"visible"		"1"
			"enabled"		"1"
			"fgcolor"		"G_White"
		}		
		"Deaths"
		{
			"ControlName"	"CExLabel"
			"fieldName"		"Deaths"
			"font"			"G_FontMedium"
			"labelText"		"%deaths%"
			"textAlignment"	"west"
			"textinsetx"	"2"
			"xpos"			"119"
			"ypos"			"17"
			"zpos"			"3"
			"wide"			"60"
			"tall"			"40"
			"autoResize"	"0"
			"pinCorner"		"0"
			"visible"		"1"
			"enabled"		"1"
			"fgcolor"		"G_White"
		}	

		"GameType"
		{
			"ControlName"	"CExLabel"
			"fieldName"		"gametype"
			"font"			"ScoreboardVerySmall"
			"labelText"		"%gametype%"
			"textAlignment"	"east"
			"xpos"			"435"
			"ypos"			"32"
			"zpos"			"5"
			"wide"			"145"
			"tall"			"20"
			"autoResize"	"0"
			"pinCorner"		"0"
			"visible"		"0"
			"enabled"		"0"
			"fgcolor"		"G_White"
		}							
		"Assists"
		{
			"ControlName"	"CExLabel"
			"fieldName"		"Assists"
			"font"			"ScoreboardVerySmall"
			"labelText"		"%assists%"
			"textAlignment"	"west"
			"xpos"			"271"
			"ypos"			"17"
			"zpos"			"3"
			"wide"			"20"
			"tall"			"20"
			"autoResize"	"0"
			"pinCorner"		"0"
			"visible"		"1"
			"enabled"		"1"
		}						
		"Destruction"
		{
			"ControlName"	"CExLabel"
			"fieldName"		"Destruction"
			"font"			"ScoreboardVerySmall"
			"labelText"		"%destruction%"
			"textAlignment"	"west"
			"xpos"			"271"
			"ypos"			"27"
			"zpos"			"3"
			"wide"			"20"
			"tall"			"20"
			"autoResize"	"0"
			"pinCorner"		"0"
			"visible"		"1"
			"enabled"		"1"
		}		

		"Captures"
		{
			"ControlName"	"CExLabel"
			"fieldName"		"Captures"
			"font"			"ScoreboardVerySmall"
			"labelText"		"%captures%"
			"textAlignment"	"west"
			"xpos"			"271"
			"ypos"			"37"
			"zpos"			"3"
			"wide"			"20"
			"tall"			"20"
			"autoResize"	"0"
			"pinCorner"		"0"
			"visible"		"1"
			"enabled"		"1"
		}			
						
		"DefensesLabel"
		{
			"ControlName"	"CExLabel"
			"fieldName"		"DefensesLabel"
			"font"			"ScoreboardVerySmall"
			"labelText"		"#TF_ScoreBoard_DefensesLabel"
			"textAlignment"	"east"
			"xpos"			"293"
			"ypos"			"17"
			"zpos"			"3"
			"wide"			"50"
			"tall"			"20"
			"autoResize"	"0"
			"pinCorner"		"0"
			"visible"		"1"
			"enabled"		"1"
		}			
		
		"DominationLabel"
		{
			"ControlName"		"CExLabel"
			"fieldName"		"DominationLabel"
			"font"			"ScoreboardVerySmall"
			"labelText"		"#TF_ScoreBoard_DominationLabel"
			"textAlignment"		"east"
			"xpos"			"293"
			"ypos"			"27"
			"zpos"			"3"
			"wide"			"50"
			"tall"			"20"
			"autoResize"	"0"
			"pinCorner"		"0"
			"visible"		"1"
			"enabled"		"1"
		}						
		"RevengeLabel"
		{
			"ControlName"	"CExLabel"
			"fieldName"		"RevengeLabel"
			"font"			"ScoreboardVerySmall"
			"labelText"		"#TF_ScoreBoard_RevengeLabel"
			"textAlignment"	"east"
			"xpos"			"293"
			"ypos"			"37"
			"zpos"			"3"
			"wide"			"50"
			"tall"			"20"
			"autoResize"	"0"
			"pinCorner"		"0"
			"visible"		"1"
			"enabled"		"1"
		}						
					
		"Defenses"
		{
			"ControlName"	"CExLabel"
			"fieldName"		"Defenses"
			"font"			"ScoreboardVerySmall"
			"labelText"		"%defenses%"
			"textAlignment"	"west"
			"xpos"			"345"
			"ypos"			"17"
			"zpos"			"3"
			"wide"			"20"
			"tall"			"20"
			"autoResize"	"0"
			"pinCorner"		"0"
			"visible"		"1"
			"enabled"		"1"
		}						
		"Domination"
		{
			"ControlName"	"CExLabel"
			"fieldName"		"Domination"
			"font"			"ScoreboardVerySmall"
			"labelText"		"%dominations%"
			"textAlignment"	"west"
			"xpos"			"345"
			"ypos"			"27"
			"zpos"			"3"
			"wide"			"20"
			"tall"			"20"
			"autoResize"	"0"
			"pinCorner"		"0"
			"visible"		"1"
			"enabled"		"1"
		}						
		"Revenge"
		{
			"ControlName"	"CExLabel"
			"fieldName"		"Revenge"
			"font"			"ScoreboardVerySmall"
			"labelText"		"%Revenge%"
			"textAlignment"	"west"
			"xpos"			"345"
			"ypos"			"37"
			"zpos"			"3"
			"wide"			"20"
			"tall"			"20"
			"autoResize"	"0"
			"pinCorner"		"0"
			"visible"		"1"
			"enabled"		"1"	
		}						
		"InvulnLabel"
		{
			"ControlName"	"CExLabel"
			"fieldName"		"InvulnLabel"
			"font"			"ScoreboardVerySmall"
			"labelText"		"#TF_ScoreBoard_InvulnLabel"
			"textAlignment"	"east"
			"xpos"			"367"
			"ypos"			"17"
			"zpos"			"3"
			"wide"			"50"
			"tall"			"20"
			"autoResize"	"0"
			"pinCorner"		"0"
			"visible"		"1"
			"enabled"		"1"
		}						
						
		"HeadshotsLabel"
		{
			"ControlName"		"CExLabel"
			"fieldName"		"HeadshotsLabel"
			"font"			"ScoreboardVerySmall"
			"labelText"		"#TF_ScoreBoard_HeadshotsLabel"
			"textAlignment"	"east"
			"xpos"			"367"
			"ypos"			"27"
			"zpos"			"3"
			"wide"			"50"
			"tall"			"20"
			"autoResize"	"0"
			"pinCorner"		"0"
			"visible"		"1"
			"enabled"		"1"
		}

		"TeleportsLabel"
		{
			"ControlName"	"CExLabel"
			"fieldName"		"TeleportsLabel"
			"font"			"ScoreboardVerySmall"
			"labelText"		"#TF_ScoreBoard_TeleportsLabel"
			"textAlignment"	"east"
			"xpos"			"367"
			"ypos"			"37"
			"zpos"			"3"
			"wide"			"50"
			"tall"			"20"
			"autoResize"	"0"
			"pinCorner"		"0"
			"visible"		"1"
			"enabled"		"1"
		}
							
		"Invuln"
		{
			"ControlName"	"CExLabel"
			"fieldName"		"Invuln"
			"font"			"ScoreboardVerySmall"
			"labelText"		"%invulns%"
			"textAlignment"	"west"
			"xpos"			"419"
			"ypos"			"17"
			"zpos"			"3"
			"wide"			"20"
			"tall"			"20"
			"autoResize"	"0"
			"pinCorner"		"0"
			"visible"		"1"
			"enabled"		"1"
		}	

		"Headshots"
		{
			"ControlName"	"CExLabel"
			"fieldName"		"Headshots"
			"font"			"ScoreboardVerySmall"
			"labelText"		"%headshots%"
			"textAlignment"	"west"
			"xpos"			"419"
			"ypos"			"27"
			"zpos"			"3"
			"wide"			"20"
			"tall"			"20"
			"autoResize"	"0"
			"pinCorner"		"0"
			"visible"		"1"
			"enabled"		"1"
		}		
		
		"Teleports"
		{
			"ControlName"	"CExLabel"
			"fieldName"		"Teleports"
			"font"			"ScoreboardVerySmall"
			"labelText"		"%teleports%"
			"textAlignment"	"west"
			"xpos"			"419"
			"ypos"			"37"
			"zpos"			"3"
			"wide"			"20"
			"tall"			"20"
			"autoResize"	"0"
			"pinCorner"		"0"
			"visible"		"1"
			"enabled"		"1"
		}						
				
		"BackstabsLabel"
		{
			"ControlName"	"CExLabel"
			"fieldName"		"BackstabsLabel"
			"font"			"ScoreboardVerySmall"
			"labelText"		"#TF_ScoreBoard_BackstabsLabel"
			"textAlignment"	"east"
			"xpos"			"441"
			"ypos"			"27"
			"zpos"			"3"
			"wide"			"50"
			"tall"			"20"
			"autoResize"	"0"
			"pinCorner"		"0"
			"visible"		"1"
			"enabled"		"1"
		}
		"Backstabs"
		{
			"ControlName"	"CExLabel"
			"fieldName"		"Backstabs"
			"font"			"ScoreboardVerySmall"
			"labelText"		"%backstabs%"
			"textAlignment"	"west"	
			"xpos"			"493"
			"ypos"			"27"
			"zpos"			"3"
			"wide"			"20"
			"tall"			"20"
			"autoResize"	"0"
			"pinCorner"		"0"
			"visible"		"1"
			"enabled"		"1"
		}		
		"BonusLabel"
		{
			"ControlName"	"CExLabel"
			"fieldName"		"BonusLabel"
			"font"			"ScoreboardVerySmall"
			"labelText"		"#TF_ScoreBoard_BonusLabel"
			"textAlignment"	"east"
			"xpos"			"441"
			"ypos"			"17"
			"zpos"			"3"
			"zpos"			"3"
			"wide"			"50"
			"tall"			"20"
			"autoResize"	"0"
			"pinCorner"		"0"
			"visible"		"1"
			"enabled"		"1"
		}
		"Bonus"
		{
			"ControlName"	"CExLabel"
			"fieldName"		"Bonus"
			"font"			"ScoreboardVerySmall"
			"labelText"		"%bonus%"
			"textAlignment"	"west"	
			"xpos"			"493"
			"ypos"			"17"
			"zpos"			"3"
			"wide"			"20"
			"tall"			"20"
			"autoResize"	"0"
			"pinCorner"		"0"
			"visible"		"1"
			"enabled"		"1"
		}
		
		"HealingLabel"
		{
			"ControlName"	"CExLabel"
			"fieldName"		"HealingLabel"
			"font"			"ScoreboardVerySmall"
			"labelText"		"#TF_ScoreBoard_HealingLabel"
			"textAlignment"	"east"
			"xpos"			"140"	
			"ypos"			"27"
			"zpos"			"3"
			"wide"			"50"
			"tall"			"20"
			"autoResize"	"0"
			"pinCorner"		"0"
			"visible"		"1"
			"enabled"		"1"
		}

		"Healing"
		{
			"ControlName"	"CExLabel"
			"fieldName"		"Healing"
			"font"			"ScoreboardVerySmall"
			"labelText"		"%healing%"
			"textAlignment"	"west"
			"xpos"			"192"
			"ypos"			"27"
			"zpos"			"3"
			"wide"			"25"
			"tall"			"20"
			"autoResize"	"0"
			"pinCorner"		"0"
			"visible"		"1"
			"enabled"		"1"	
		}	

		"SupportLabel"
		{
			"ControlName"	"CExLabel"
			"fieldName"		"SupportLabel"
			"font"			"ScoreboardVerySmall"
			"labelText"		"#TF_Scoreboard_Support"
			"textAlignment"	"east"
			"xpos"			"140"
			"ypos"			"37"
			"zpos"			"3"
			"wide"			"50"
			"tall"			"20"
			"autoResize"	"0"
			"pinCorner"		"0"
			"visible"		"1"
			"enabled"		"1"
		}
		"Support"
		{
			"ControlName"	"CExLabel"
			"fieldName"		"Support"
			"font"			"ScoreboardVerySmall"
			"labelText"		"%support%"
			"textAlignment"	"west"
			"xpos"			"192"
			"ypos"			"37"
			"zpos"			"3"
			"wide"			"25"
			"tall"			"20"
			"autoResize"	"0"
			"pinCorner"		"0"
			"visible"		"1"
			"enabled"		"1"
		}
		"DamageLabel"
		{
			"ControlName"	"CExLabel"
			"fieldName"		"DamageLabel"
			"font"			"ScoreboardVerySmall"
			"labelText"		"#TF_Scoreboard_Damage"
			"textAlignment"	"east"
			"xpos"			"140"
			"ypos"			"17"
			"zpos"			"3"
			"wide"			"50"
			"tall"			"20"
			"autoResize"	"0"
			"pinCorner"		"0"
			"visible"		"1"
			"enabled"		"1"
		}
		"Damage"
		{
			"ControlName"	"CExLabel"
			"fieldName"		"Damage"
			"font"			"ScoreboardVerySmall"
			"labelText"		"%damage%"
			"textAlignment"	"west"
			"xpos"			"192"
			"ypos"			"17"
			"zpos"			"3"
			"wide"			"25"
			"tall"			"20"
			"autoResize"	"0"
			"pinCorner"		"0"
			"visible"		"1"
			"enabled"		"1"
		}		
	}

	"ButtonLegendBG"		[$X360]
	{
		"ControlName"	"ImagePanel"
		"fieldName"		"ButtonLegendBG"
		"xpos"			"10"
		"ypos"			"373"
		"zpos"			"0"
		"wide"			"539"
		"tall"			"38"
		"autoResize"	"0"
		"pinCorner"		"0"
		"visible"		"1"
		"enabled"		"1"
		"tabPosition"	"0"	
		"fillcolor"		"0 0 0 153"
		"PaintBackgroundType"	"0"
	}
	
	"ButtonLegend"		[$X360]
	{
		"ControlName"	"EditablePanel"
		"fieldName"		"ButtonLegend"
		"xpos"			"10"
		"ypos"			"373"
		"zpos"			"1"
		"wide"			"539"
		"tall"			"150"
		"visible"		"1"
										
		"SelectHintIcon"
		{
			"ControlName"	"CExLabel"
			"fieldName"		"SelectHintIcon"
			"font"			"GameUIButtons"
			"xpos"			"10"
			"ypos"			"0"
			"zpos"			"1"
			"wide"			"300"
			"tall"			"38"
			"autoResize"	"0"
			"pinCorner"		"0"
			"visible"		"1"
			"enabled"		"1"
			"labelText"		"C"
			"textAlignment"	"Left"
			"dulltext"		"0"
			"brighttext"	"0"
		}
		
		"SelectHintLabel"
		{
			"ControlName"	"CExLabel"
			"fieldName"		"SelectHintLabel"
			"font"			"ScoreboardMedium"
			"xpos"			"25"
			"ypos"			"2"
			"zpos"			"1"
			"wide"			"300"
			"tall"			"39"
			"autoResize"	"0"
			"pinCorner"		"0"
			"visible"		"1"
			"enabled"		"1"
			"labelText"		"#GameUI_Select"
			"textAlignment"	"Left"
			"dulltext"		"0"
			"brighttext"	"0"
		}
		
		"GamerCardIcon"
		{
			"ControlName"	"CExLabel"
			"fieldName"		"GamerCardIcon"
			"font"			"GameUIButtons"
			"xpos"			"150"
			"ypos"			"0"
			"zpos"			"1"
			"wide"			"300"
			"tall"			"38"
			"autoResize"	"0"
			"pinCorner"		"0"
			"visible"		"1"
			"enabled"		"1"
			"labelText"		"A"
			"textAlignment"	"Left"
			"dulltext"		"0"
			"brighttext"	"0"
		}
		
		"GamerCardLabel"
		{
			"ControlName"	"CExLabel"
			"fieldName"		"GamerCardLabel"
			"font"			"ScoreboardMedium"
			"xpos"			"170"
			"ypos"			"2"
			"zpos"			"1"
			"wide"			"300"
			"tall"			"39"
			"autoResize"	"0"
			"pinCorner"		"0"
			"visible"		"1"
			"enabled"		"1"
			"labelText"		"#TF_ViewGamercard"
			"textAlignment"	"Left"
			"dulltext"		"0"
			"brighttext"	"0"
		}
		
		"ReputationIcon"
		{
			"ControlName"	"CExLabel"
			"fieldName"		"ReputationIcon"
			"font"			"GameUIButtons"
			"xpos"			"350"
			"ypos"			"0"
			"zpos"			"1"
			"wide"			"300"
			"tall"			"38"
			"autoResize"	"0"
			"pinCorner"		"0"
			"visible"		"1"
			"enabled"		"1"
			"labelText"		"X"
			"textAlignment"	"Left"
			"dulltext"		"0"
			"brighttext"	"0"
		}
		
		"ReputationLabel"
		{
			"ControlName"	"CExLabel"
			"fieldName"		"ReputationLabel"
			"font"			"ScoreboardMedium"
			"xpos"			"403"
			"ypos"			"2"
			"zpos"			"1"
			"wide"			"300"
			"tall"			"39"
			"autoResize"	"0"
			"pinCorner"		"0"
			"visible"		"1"
			"enabled"		"1"
			"labelText"		"#GameUI_PlayerReview"
			"textAlignment"	"Left"
			"dulltext"		"0"
			"brighttext"	"0"
		}
	}				
	
	"MvMScoreboard"
	{
		"ControlName"		"CTFHudMannVsMachineScoreboard"
		"fieldName"			"MvMScoreboard"
		"xpos"				"0"
		"ypos"				"0"
		"zpos"				"10"
		"wide"				"f0"
		"tall"				"480"
		"visible"			"0"
		"enabled"			"1"
		
		"verbose"			"1"
		
		if_mvm
		{
			"visible"		"1"
		}
	}
}

